{
  "type": "service_account",
  "project_id": "roovdev-1ed30",
  "private_key_id": "be690a17b50f7cee94744147983b51a63f1bf5e6",
  "private_key": "-----BEGIN PRIVATE KEY-----\nMIIEvgIBADANBgkqhkiG9w0BAQEFAASCBKgwggSkAgEAAoIBAQDpRldKY6KqKBo/\nQFYiWF5Wlk9Zec/cGV0YtfaAdjWiU8rrFCNQFQ/OrvYcxvQMBSPMRtKs3/za421B\nfMqJyeSesqRqeJZ/kIECxYYvWVX131zKDVuQtXRQ76MMco/ZA9vmdMkXhtLW407k\niaOry5n0EsgF14c2z9j773SWScriRmI7uSxiAftm3kCZz46lHV+VIlio3YTVNtOI\nQJaSbeYKwq1/Iuucapi7Y1hiycClC4K8+b1JrfjVEKmHAf7L5ecPjhmJlp0ky5uS\nsGfO2/vaGXfn1exmGTS677JWHwRl6pvZjZ8+4SLhcQvJenf5VB26cPLaWWDez6jJ\ni750/gYtAgMBAAECggEAJ6bxR4/QIqRWcdH50jS7NHSwYEE4d+1Hyd+EWym8zC76\nGyN9LSunWDadVx7qdPCauSqAvSoFzR9DfxI7S1iqJ9+t2vtMebqSc2on+PxyhCzH\nlQDYQ6zUbL2PNZpzoSvqwS2w0PL1+9j/nBFZZOZi8P4QSg3sygBindCCPNmmRvfk\nvbUnFVHmu6vw+FtWJVlKYOUEKKaFHra81XV1/36f3auZya9H0rSV0bhqd3WBgZZf\nTiV+mhbeuWO5z7vLIBdkeDx8wuoR82mr7Rj+c8+kbgtxVGD0ceE8ewlzgzlJL5lL\nMf6XE5EnxMqj4pWi4Zz8Oa/XTIHtBIxEXYTECTUA8QKBgQD2tancckkGlcz79NDG\n7RJH4ih3BMrewLUxk4yG6AM39waU05+pM2y2yn8d/vnZ9Q7F5VqswQ+H4QqNjXbt\nz6ha0A36IAWY35ZWyd8f2CXYJL80fzfIi9T4KAj3mM+/RPVR/RKi8HnLHHNkNgaU\ncRv1aN0UchRpoZg2rXrQBi3mWwKBgQDyDymVXzM1xMfO+pEPldyWOWDmkPvPyKzB\nBUnQIFZJyNTV5+FaFIHG9IRZpVo4VYou/wl97eHM9c5U4uTOtoGl/pUOydWpaxaV\nD0y9ybbHA2V992kVLAmg8f7BEQgFl0uhS2NWVtrnHxwoJTRWc1s6pDaL2q7S35yJ\nsTpaHnM8FwKBgQCdfhkClp6Rqp2iFoYVB5CM/Q4R9KhBjUnebS/fi0tKtdKovXQG\nQsLa6eg+UOBVSIB2ytSYxeJRPtNKzA0pAVCbMIhLrZeFIO7LVrGulYCLO+In9DK7\nPrDk/kHDNfUhSDdHcMQt6lAF3pK3XVnT92T+xEOl4rGvQS53cUWeeONiUwKBgQDr\nuoZlmEuXzmZDlFLWmbwzc/eBMqp4JNbQNuU2UXeW7YUQN3yHrDbiWVfWsagV+n/S\n2r4UrChc4PiqRDhNcwD5dd8VgsuX7NkWGstCfIGKeC1LqjjkzHkoCuNsg7iLMVcO\n4gsAlx8hO3PBSNIaasbqaedQ9YuRgwDAOx83ijXwywKBgHQd/ikwNyl0JpN735cB\nbNABsGcEgEOBbSX3ZbHaB2UjuAyly3E9iUdNP+VMlw59WsWAXzqeOguXajrO262E\nRKd6y1dhan78IZf2G+N+NC/GbuxUDTLjl9BKl3syBxokHQ9h3ArjMe17Y7tMN8kg\n1l44jpd8eY17WKMdAcZyDKq0\n-----END PRIVATE KEY-----\n",
  "client_email": "roovdev-1ed30@appspot.gserviceaccount.com",
  "client_id": "115750648967673611994",
  "auth_uri": "https://accounts.google.com/o/oauth2/auth",
  "token_uri": "https://oauth2.googleapis.com/token",
  "auth_provider_x509_cert_url": "https://www.googleapis.com/oauth2/v1/certs",
  "client_x509_cert_url": "https://www.googleapis.com/robot/v1/metadata/x509/roovdev-1ed30%40appspot.gserviceaccount.com"
}